('C:\\Users\\ebarrero\\PycharmProjects\\pythonProject\\Día10\\build\\Dia_10\\Dia_10.pkg',
 {'BINARY': True,
  'DATA': True,
  'EXECUTABLE': True,
  'EXTENSION': True,
  'PYMODULE': True,
  'PYSOURCE': True,
  'PYZ': False,
  'SPLASH': True,
  'SYMLINK': False},
 [('pyi-contents-directory _internal', '', 'OPTION'),
  ('PYZ-00.pyz',
   'C:\\Users\\ebarrero\\PycharmProjects\\pythonProject\\Día10\\build\\Dia_10\\PYZ-00.pyz',
   'PYZ'),
  ('struct',
   'C:\\Users\\ebarrero\\PycharmProjects\\pythonProject\\Día10\\build\\Dia_10\\localpycs\\struct.pyc',
   'PYMODULE'),
  ('pyimod01_archive',
   'C:\\Users\\ebarrero\\PycharmProjects\\pythonProject\\Día10\\build\\Dia_10\\localpycs\\pyimod01_archive.pyc',
   'PYMODULE'),
  ('pyimod02_importers',
   'C:\\Users\\ebarrero\\PycharmProjects\\pythonProject\\Día10\\build\\Dia_10\\localpycs\\pyimod02_importers.pyc',
   'PYMODULE'),
  ('pyimod03_ctypes',
   'C:\\Users\\ebarrero\\PycharmProjects\\pythonProject\\Día10\\build\\Dia_10\\localpycs\\pyimod03_ctypes.pyc',
   'PYMODULE'),
  ('pyimod04_pywin32',
   'C:\\Users\\ebarrero\\PycharmProjects\\pythonProject\\Día10\\build\\Dia_10\\localpycs\\pyimod04_pywin32.pyc',
   'PYMODULE'),
  ('pyiboot01_bootstrap',
   'C:\\Users\\ebarrero\\Python\\lib\\site-packages\\PyInstaller\\loader\\pyiboot01_bootstrap.py',
   'PYSOURCE'),
  ('pyi_rth_pkgres',
   'C:\\Users\\ebarrero\\Python\\Lib\\site-packages\\PyInstaller\\hooks\\rthooks\\pyi_rth_pkgres.py',
   'PYSOURCE'),
  ('pyi_rth_inspect',
   'C:\\Users\\ebarrero\\Python\\Lib\\site-packages\\PyInstaller\\hooks\\rthooks\\pyi_rth_inspect.py',
   'PYSOURCE'),
  ('pyi_rth_pkgutil',
   'C:\\Users\\ebarrero\\Python\\Lib\\site-packages\\PyInstaller\\hooks\\rthooks\\pyi_rth_pkgutil.py',
   'PYSOURCE'),
  ('Dia_10',
   'C:\\Users\\ebarrero\\PycharmProjects\\pythonProject\\Día10\\Dia_10.py',
   'PYSOURCE'),
  ('python39.dll',
   'C:\\Users\\ebarrero\\AppData\\Local\\Programs\\Python\\Python39\\python39.dll',
   'BINARY'),
  ('SDL2_image.dll',
   'C:\\Users\\ebarrero\\Python\\lib\\site-packages\\pygame\\SDL2_image.dll',
   'BINARY'),
  ('libpng16-16.dll',
   'C:\\Users\\ebarrero\\Python\\lib\\site-packages\\pygame\\libpng16-16.dll',
   'BINARY'),
  ('libwebp-7.dll',
   'C:\\Users\\ebarrero\\Python\\lib\\site-packages\\pygame\\libwebp-7.dll',
   'BINARY'),
  ('libopusfile-0.dll',
   'C:\\Users\\ebarrero\\Python\\lib\\site-packages\\pygame\\libopusfile-0.dll',
   'BINARY'),
  ('libogg-0.dll',
   'C:\\Users\\ebarrero\\Python\\lib\\site-packages\\pygame\\libogg-0.dll',
   'BINARY'),
  ('portmidi.dll',
   'C:\\Users\\ebarrero\\Python\\lib\\site-packages\\pygame\\portmidi.dll',
   'BINARY'),
  ('libjpeg-9.dll',
   'C:\\Users\\ebarrero\\Python\\lib\\site-packages\\pygame\\libjpeg-9.dll',
   'BINARY'),
  ('freetype.dll',
   'C:\\Users\\ebarrero\\Python\\lib\\site-packages\\pygame\\freetype.dll',
   'BINARY'),
  ('libopus-0.dll',
   'C:\\Users\\ebarrero\\Python\\lib\\site-packages\\pygame\\libopus-0.dll',
   'BINARY'),
  ('libtiff-5.dll',
   'C:\\Users\\ebarrero\\Python\\lib\\site-packages\\pygame\\libtiff-5.dll',
   'BINARY'),
  ('SDL2_ttf.dll',
   'C:\\Users\\ebarrero\\Python\\lib\\site-packages\\pygame\\SDL2_ttf.dll',
   'BINARY'),
  ('zlib1.dll',
   'C:\\Users\\ebarrero\\Python\\lib\\site-packages\\pygame\\zlib1.dll',
   'BINARY'),
  ('SDL2.dll',
   'C:\\Users\\ebarrero\\Python\\lib\\site-packages\\pygame\\SDL2.dll',
   'BINARY'),
  ('SDL2_mixer.dll',
   'C:\\Users\\ebarrero\\Python\\lib\\site-packages\\pygame\\SDL2_mixer.dll',
   'BINARY'),
  ('libmodplug-1.dll',
   'C:\\Users\\ebarrero\\Python\\lib\\site-packages\\pygame\\libmodplug-1.dll',
   'BINARY'),
  ('unicodedata.pyd',
   'C:\\Users\\ebarrero\\AppData\\Local\\Programs\\Python\\Python39\\DLLs\\unicodedata.pyd',
   'EXTENSION'),
  ('_lzma.pyd',
   'C:\\Users\\ebarrero\\AppData\\Local\\Programs\\Python\\Python39\\DLLs\\_lzma.pyd',
   'EXTENSION'),
  ('_bz2.pyd',
   'C:\\Users\\ebarrero\\AppData\\Local\\Programs\\Python\\Python39\\DLLs\\_bz2.pyd',
   'EXTENSION'),
  ('select.pyd',
   'C:\\Users\\ebarrero\\AppData\\Local\\Programs\\Python\\Python39\\DLLs\\select.pyd',
   'EXTENSION'),
  ('_socket.pyd',
   'C:\\Users\\ebarrero\\AppData\\Local\\Programs\\Python\\Python39\\DLLs\\_socket.pyd',
   'EXTENSION'),
  ('_ctypes.pyd',
   'C:\\Users\\ebarrero\\AppData\\Local\\Programs\\Python\\Python39\\DLLs\\_ctypes.pyd',
   'EXTENSION'),
  ('_ssl.pyd',
   'C:\\Users\\ebarrero\\AppData\\Local\\Programs\\Python\\Python39\\DLLs\\_ssl.pyd',
   'EXTENSION'),
  ('_queue.pyd',
   'C:\\Users\\ebarrero\\AppData\\Local\\Programs\\Python\\Python39\\DLLs\\_queue.pyd',
   'EXTENSION'),
  ('_hashlib.pyd',
   'C:\\Users\\ebarrero\\AppData\\Local\\Programs\\Python\\Python39\\DLLs\\_hashlib.pyd',
   'EXTENSION'),
  ('pyexpat.pyd',
   'C:\\Users\\ebarrero\\AppData\\Local\\Programs\\Python\\Python39\\DLLs\\pyexpat.pyd',
   'EXTENSION'),
  ('pygame\\imageext.cp39-win_amd64.pyd',
   'C:\\Users\\ebarrero\\Python\\lib\\site-packages\\pygame\\imageext.cp39-win_amd64.pyd',
   'EXTENSION'),
  ('pygame\\scrap.cp39-win_amd64.pyd',
   'C:\\Users\\ebarrero\\Python\\lib\\site-packages\\pygame\\scrap.cp39-win_amd64.pyd',
   'EXTENSION'),
  ('pygame\\mixer.cp39-win_amd64.pyd',
   'C:\\Users\\ebarrero\\Python\\lib\\site-packages\\pygame\\mixer.cp39-win_amd64.pyd',
   'EXTENSION'),
  ('pygame\\mixer_music.cp39-win_amd64.pyd',
   'C:\\Users\\ebarrero\\Python\\lib\\site-packages\\pygame\\mixer_music.cp39-win_amd64.pyd',
   'EXTENSION'),
  ('pygame\\font.cp39-win_amd64.pyd',
   'C:\\Users\\ebarrero\\Python\\lib\\site-packages\\pygame\\font.cp39-win_amd64.pyd',
   'EXTENSION'),
  ('pygame\\_freetype.cp39-win_amd64.pyd',
   'C:\\Users\\ebarrero\\Python\\lib\\site-packages\\pygame\\_freetype.cp39-win_amd64.pyd',
   'EXTENSION'),
  ('pygame\\transform.cp39-win_amd64.pyd',
   'C:\\Users\\ebarrero\\Python\\lib\\site-packages\\pygame\\transform.cp39-win_amd64.pyd',
   'EXTENSION'),
  ('pygame\\time.cp39-win_amd64.pyd',
   'C:\\Users\\ebarrero\\Python\\lib\\site-packages\\pygame\\time.cp39-win_amd64.pyd',
   'EXTENSION'),
  ('pygame\\pixelarray.cp39-win_amd64.pyd',
   'C:\\Users\\ebarrero\\Python\\lib\\site-packages\\pygame\\pixelarray.cp39-win_amd64.pyd',
   'EXTENSION'),
  ('pygame\\mask.cp39-win_amd64.pyd',
   'C:\\Users\\ebarrero\\Python\\lib\\site-packages\\pygame\\mask.cp39-win_amd64.pyd',
   'EXTENSION'),
  ('pygame\\surface.cp39-win_amd64.pyd',
   'C:\\Users\\ebarrero\\Python\\lib\\site-packages\\pygame\\surface.cp39-win_amd64.pyd',
   'EXTENSION'),
  ('pygame\\pixelcopy.cp39-win_amd64.pyd',
   'C:\\Users\\ebarrero\\Python\\lib\\site-packages\\pygame\\pixelcopy.cp39-win_amd64.pyd',
   'EXTENSION'),
  ('pygame\\mouse.cp39-win_amd64.pyd',
   'C:\\Users\\ebarrero\\Python\\lib\\site-packages\\pygame\\mouse.cp39-win_amd64.pyd',
   'EXTENSION'),
  ('pygame\\key.cp39-win_amd64.pyd',
   'C:\\Users\\ebarrero\\Python\\lib\\site-packages\\pygame\\key.cp39-win_amd64.pyd',
   'EXTENSION'),
  ('pygame\\joystick.cp39-win_amd64.pyd',
   'C:\\Users\\ebarrero\\Python\\lib\\site-packages\\pygame\\joystick.cp39-win_amd64.pyd',
   'EXTENSION'),
  ('pygame\\image.cp39-win_amd64.pyd',
   'C:\\Users\\ebarrero\\Python\\lib\\site-packages\\pygame\\image.cp39-win_amd64.pyd',
   'EXTENSION'),
  ('pygame\\event.cp39-win_amd64.pyd',
   'C:\\Users\\ebarrero\\Python\\lib\\site-packages\\pygame\\event.cp39-win_amd64.pyd',
   'EXTENSION'),
  ('pygame\\draw.cp39-win_amd64.pyd',
   'C:\\Users\\ebarrero\\Python\\lib\\site-packages\\pygame\\draw.cp39-win_amd64.pyd',
   'EXTENSION'),
  ('pygame\\display.cp39-win_amd64.pyd',
   'C:\\Users\\ebarrero\\Python\\lib\\site-packages\\pygame\\display.cp39-win_amd64.pyd',
   'EXTENSION'),
  ('pygame\\math.cp39-win_amd64.pyd',
   'C:\\Users\\ebarrero\\Python\\lib\\site-packages\\pygame\\math.cp39-win_amd64.pyd',
   'EXTENSION'),
  ('pygame\\bufferproxy.cp39-win_amd64.pyd',
   'C:\\Users\\ebarrero\\Python\\lib\\site-packages\\pygame\\bufferproxy.cp39-win_amd64.pyd',
   'EXTENSION'),
  ('pygame\\color.cp39-win_amd64.pyd',
   'C:\\Users\\ebarrero\\Python\\lib\\site-packages\\pygame\\color.cp39-win_amd64.pyd',
   'EXTENSION'),
  ('pygame\\surflock.cp39-win_amd64.pyd',
   'C:\\Users\\ebarrero\\Python\\lib\\site-packages\\pygame\\surflock.cp39-win_amd64.pyd',
   'EXTENSION'),
  ('pygame\\rwobject.cp39-win_amd64.pyd',
   'C:\\Users\\ebarrero\\Python\\lib\\site-packages\\pygame\\rwobject.cp39-win_amd64.pyd',
   'EXTENSION'),
  ('pygame\\rect.cp39-win_amd64.pyd',
   'C:\\Users\\ebarrero\\Python\\lib\\site-packages\\pygame\\rect.cp39-win_amd64.pyd',
   'EXTENSION'),
  ('pygame\\constants.cp39-win_amd64.pyd',
   'C:\\Users\\ebarrero\\Python\\lib\\site-packages\\pygame\\constants.cp39-win_amd64.pyd',
   'EXTENSION'),
  ('pygame\\base.cp39-win_amd64.pyd',
   'C:\\Users\\ebarrero\\Python\\lib\\site-packages\\pygame\\base.cp39-win_amd64.pyd',
   'EXTENSION'),
  ('_decimal.pyd',
   'C:\\Users\\ebarrero\\AppData\\Local\\Programs\\Python\\Python39\\DLLs\\_decimal.pyd',
   'EXTENSION'),
  ('api-ms-win-crt-heap-l1-1-0.dll',
   'C:\\Program '
   'Files\\Microsoft\\jdk-11.0.16.101-hotspot\\bin\\api-ms-win-crt-heap-l1-1-0.dll',
   'BINARY'),
  ('api-ms-win-crt-time-l1-1-0.dll',
   'C:\\Program '
   'Files\\Microsoft\\jdk-11.0.16.101-hotspot\\bin\\api-ms-win-crt-time-l1-1-0.dll',
   'BINARY'),
  ('api-ms-win-crt-runtime-l1-1-0.dll',
   'C:\\Program '
   'Files\\Microsoft\\jdk-11.0.16.101-hotspot\\bin\\api-ms-win-crt-runtime-l1-1-0.dll',
   'BINARY'),
  ('api-ms-win-crt-locale-l1-1-0.dll',
   'C:\\Program '
   'Files\\Microsoft\\jdk-11.0.16.101-hotspot\\bin\\api-ms-win-crt-locale-l1-1-0.dll',
   'BINARY'),
  ('VCRUNTIME140.dll',
   'C:\\Users\\ebarrero\\AppData\\Local\\Programs\\Python\\Python39\\VCRUNTIME140.dll',
   'BINARY'),
  ('api-ms-win-crt-math-l1-1-0.dll',
   'C:\\Program '
   'Files\\Microsoft\\jdk-11.0.16.101-hotspot\\bin\\api-ms-win-crt-math-l1-1-0.dll',
   'BINARY'),
  ('api-ms-win-crt-conio-l1-1-0.dll',
   'C:\\Program '
   'Files\\Microsoft\\jdk-11.0.16.101-hotspot\\bin\\api-ms-win-crt-conio-l1-1-0.dll',
   'BINARY'),
  ('api-ms-win-crt-stdio-l1-1-0.dll',
   'C:\\Program '
   'Files\\Microsoft\\jdk-11.0.16.101-hotspot\\bin\\api-ms-win-crt-stdio-l1-1-0.dll',
   'BINARY'),
  ('api-ms-win-crt-environment-l1-1-0.dll',
   'C:\\Program '
   'Files\\Microsoft\\jdk-11.0.16.101-hotspot\\bin\\api-ms-win-crt-environment-l1-1-0.dll',
   'BINARY'),
  ('api-ms-win-crt-convert-l1-1-0.dll',
   'C:\\Program '
   'Files\\Microsoft\\jdk-11.0.16.101-hotspot\\bin\\api-ms-win-crt-convert-l1-1-0.dll',
   'BINARY'),
  ('api-ms-win-crt-filesystem-l1-1-0.dll',
   'C:\\Program '
   'Files\\Microsoft\\jdk-11.0.16.101-hotspot\\bin\\api-ms-win-crt-filesystem-l1-1-0.dll',
   'BINARY'),
  ('api-ms-win-crt-process-l1-1-0.dll',
   'C:\\Program '
   'Files\\Microsoft\\jdk-11.0.16.101-hotspot\\bin\\api-ms-win-crt-process-l1-1-0.dll',
   'BINARY'),
  ('api-ms-win-crt-string-l1-1-0.dll',
   'C:\\Program '
   'Files\\Microsoft\\jdk-11.0.16.101-hotspot\\bin\\api-ms-win-crt-string-l1-1-0.dll',
   'BINARY'),
  ('pygame\\SDL2.dll',
   'C:\\Users\\ebarrero\\Python\\lib\\site-packages\\pygame\\SDL2.dll',
   'BINARY'),
  ('pygame\\zlib1.dll',
   'C:\\Users\\ebarrero\\Python\\lib\\site-packages\\pygame\\zlib1.dll',
   'BINARY'),
  ('pygame\\libogg-0.dll',
   'C:\\Users\\ebarrero\\Python\\lib\\site-packages\\pygame\\libogg-0.dll',
   'BINARY'),
  ('pygame\\libopus-0.dll',
   'C:\\Users\\ebarrero\\Python\\lib\\site-packages\\pygame\\libopus-0.dll',
   'BINARY'),
  ('api-ms-win-crt-utility-l1-1-0.dll',
   'C:\\Program '
   'Files\\Microsoft\\jdk-11.0.16.101-hotspot\\bin\\api-ms-win-crt-utility-l1-1-0.dll',
   'BINARY'),
  ('pygame\\libjpeg-9.dll',
   'C:\\Users\\ebarrero\\Python\\lib\\site-packages\\pygame\\libjpeg-9.dll',
   'BINARY'),
  ('libffi-7.dll',
   'C:\\Users\\ebarrero\\AppData\\Local\\Programs\\Python\\Python39\\DLLs\\libffi-7.dll',
   'BINARY'),
  ('libssl-1_1.dll',
   'C:\\Users\\ebarrero\\AppData\\Local\\Programs\\Python\\Python39\\DLLs\\libssl-1_1.dll',
   'BINARY'),
  ('libcrypto-1_1.dll',
   'C:\\Users\\ebarrero\\AppData\\Local\\Programs\\Python\\Python39\\DLLs\\libcrypto-1_1.dll',
   'BINARY'),
  ('pygame\\SDL2_image.dll',
   'C:\\Users\\ebarrero\\Python\\lib\\site-packages\\pygame\\SDL2_image.dll',
   'BINARY'),
  ('pygame\\libpng16-16.dll',
   'C:\\Users\\ebarrero\\Python\\lib\\site-packages\\pygame\\libpng16-16.dll',
   'BINARY'),
  ('pygame\\SDL2_mixer.dll',
   'C:\\Users\\ebarrero\\Python\\lib\\site-packages\\pygame\\SDL2_mixer.dll',
   'BINARY'),
  ('pygame\\SDL2_ttf.dll',
   'C:\\Users\\ebarrero\\Python\\lib\\site-packages\\pygame\\SDL2_ttf.dll',
   'BINARY'),
  ('pygame\\freetype.dll',
   'C:\\Users\\ebarrero\\Python\\lib\\site-packages\\pygame\\freetype.dll',
   'BINARY'),
  ('ucrtbase.dll',
   'C:\\Program Files\\Microsoft\\jdk-11.0.16.101-hotspot\\bin\\ucrtbase.dll',
   'BINARY'),
  ('api-ms-win-core-console-l1-1-0.dll',
   'C:\\Program '
   'Files\\Microsoft\\jdk-11.0.16.101-hotspot\\bin\\api-ms-win-core-console-l1-1-0.dll',
   'BINARY'),
  ('api-ms-win-core-timezone-l1-1-0.dll',
   'C:\\Program '
   'Files\\Microsoft\\jdk-11.0.16.101-hotspot\\bin\\api-ms-win-core-timezone-l1-1-0.dll',
   'BINARY'),
  ('api-ms-win-core-synch-l1-1-0.dll',
   'C:\\Program '
   'Files\\Microsoft\\jdk-11.0.16.101-hotspot\\bin\\api-ms-win-core-synch-l1-1-0.dll',
   'BINARY'),
  ('api-ms-win-core-libraryloader-l1-1-0.dll',
   'C:\\Program '
   'Files\\Microsoft\\jdk-11.0.16.101-hotspot\\bin\\api-ms-win-core-libraryloader-l1-1-0.dll',
   'BINARY'),
  ('api-ms-win-core-handle-l1-1-0.dll',
   'C:\\Program '
   'Files\\Microsoft\\jdk-11.0.16.101-hotspot\\bin\\api-ms-win-core-handle-l1-1-0.dll',
   'BINARY'),
  ('api-ms-win-core-file-l2-1-0.dll',
   'C:\\Program '
   'Files\\Microsoft\\jdk-11.0.16.101-hotspot\\bin\\api-ms-win-core-file-l2-1-0.dll',
   'BINARY'),
  ('api-ms-win-core-interlocked-l1-1-0.dll',
   'C:\\Program '
   'Files\\Microsoft\\jdk-11.0.16.101-hotspot\\bin\\api-ms-win-core-interlocked-l1-1-0.dll',
   'BINARY'),
  ('api-ms-win-core-string-l1-1-0.dll',
   'C:\\Program '
   'Files\\Microsoft\\jdk-11.0.16.101-hotspot\\bin\\api-ms-win-core-string-l1-1-0.dll',
   'BINARY'),
  ('api-ms-win-core-file-l1-2-0.dll',
   'C:\\Program '
   'Files\\Microsoft\\jdk-11.0.16.101-hotspot\\bin\\api-ms-win-core-file-l1-2-0.dll',
   'BINARY'),
  ('api-ms-win-core-heap-l1-1-0.dll',
   'C:\\Program '
   'Files\\Microsoft\\jdk-11.0.16.101-hotspot\\bin\\api-ms-win-core-heap-l1-1-0.dll',
   'BINARY'),
  ('api-ms-win-core-rtlsupport-l1-1-0.dll',
   'C:\\Program '
   'Files\\Microsoft\\jdk-11.0.16.101-hotspot\\bin\\api-ms-win-core-rtlsupport-l1-1-0.dll',
   'BINARY'),
  ('api-ms-win-core-processenvironment-l1-1-0.dll',
   'C:\\Program '
   'Files\\Microsoft\\jdk-11.0.16.101-hotspot\\bin\\api-ms-win-core-processenvironment-l1-1-0.dll',
   'BINARY'),
  ('api-ms-win-core-memory-l1-1-0.dll',
   'C:\\Program '
   'Files\\Microsoft\\jdk-11.0.16.101-hotspot\\bin\\api-ms-win-core-memory-l1-1-0.dll',
   'BINARY'),
  ('api-ms-win-core-namedpipe-l1-1-0.dll',
   'C:\\Program '
   'Files\\Microsoft\\jdk-11.0.16.101-hotspot\\bin\\api-ms-win-core-namedpipe-l1-1-0.dll',
   'BINARY'),
  ('api-ms-win-core-sysinfo-l1-1-0.dll',
   'C:\\Program '
   'Files\\Microsoft\\jdk-11.0.16.101-hotspot\\bin\\api-ms-win-core-sysinfo-l1-1-0.dll',
   'BINARY'),
  ('api-ms-win-core-localization-l1-2-0.dll',
   'C:\\Program '
   'Files\\Microsoft\\jdk-11.0.16.101-hotspot\\bin\\api-ms-win-core-localization-l1-2-0.dll',
   'BINARY'),
  ('api-ms-win-core-debug-l1-1-0.dll',
   'C:\\Program '
   'Files\\Microsoft\\jdk-11.0.16.101-hotspot\\bin\\api-ms-win-core-debug-l1-1-0.dll',
   'BINARY'),
  ('api-ms-win-core-profile-l1-1-0.dll',
   'C:\\Program '
   'Files\\Microsoft\\jdk-11.0.16.101-hotspot\\bin\\api-ms-win-core-profile-l1-1-0.dll',
   'BINARY'),
  ('api-ms-win-core-util-l1-1-0.dll',
   'C:\\Program '
   'Files\\Microsoft\\jdk-11.0.16.101-hotspot\\bin\\api-ms-win-core-util-l1-1-0.dll',
   'BINARY'),
  ('api-ms-win-core-processthreads-l1-1-0.dll',
   'C:\\Program '
   'Files\\Microsoft\\jdk-11.0.16.101-hotspot\\bin\\api-ms-win-core-processthreads-l1-1-0.dll',
   'BINARY'),
  ('api-ms-win-core-synch-l1-2-0.dll',
   'C:\\Program '
   'Files\\Microsoft\\jdk-11.0.16.101-hotspot\\bin\\api-ms-win-core-synch-l1-2-0.dll',
   'BINARY'),
  ('api-ms-win-core-errorhandling-l1-1-0.dll',
   'C:\\Program '
   'Files\\Microsoft\\jdk-11.0.16.101-hotspot\\bin\\api-ms-win-core-errorhandling-l1-1-0.dll',
   'BINARY'),
  ('api-ms-win-core-processthreads-l1-1-1.dll',
   'C:\\Program '
   'Files\\Microsoft\\jdk-11.0.16.101-hotspot\\bin\\api-ms-win-core-processthreads-l1-1-1.dll',
   'BINARY'),
  ('api-ms-win-core-file-l1-1-0.dll',
   'C:\\Program '
   'Files\\Microsoft\\jdk-11.0.16.101-hotspot\\bin\\api-ms-win-core-file-l1-1-0.dll',
   'BINARY'),
  ('api-ms-win-core-datetime-l1-1-0.dll',
   'C:\\Program '
   'Files\\Microsoft\\jdk-11.0.16.101-hotspot\\bin\\api-ms-win-core-datetime-l1-1-0.dll',
   'BINARY'),
  ('base_library.zip',
   'C:\\Users\\ebarrero\\PycharmProjects\\pythonProject\\Día10\\build\\Dia_10\\base_library.zip',
   'DATA'),
  ('pygame\\pygame_icon.bmp',
   'C:\\Users\\ebarrero\\Python\\lib\\site-packages\\pygame\\pygame_icon.bmp',
   'DATA'),
  ('pygame\\freesansbold.ttf',
   'C:\\Users\\ebarrero\\Python\\lib\\site-packages\\pygame\\freesansbold.ttf',
   'DATA')],
 'python39.dll',
 False,
 False,
 False,
 [],
 None,
 None,
 None)
