('C:\\Users\\ebarrero\\PycharmProjects\\pythonProject\\Día10\\build\\Dia_10\\PYZ-00.pyz',
 [('__future__',
   'C:\\Users\\ebarrero\\AppData\\Local\\Programs\\Python\\Python39\\lib\\__future__.py',
   'PYMODULE'),
  ('_aix_support',
   'C:\\Users\\ebarrero\\AppData\\Local\\Programs\\Python\\Python39\\lib\\_aix_support.py',
   'PYMODULE'),
  ('_bootsubprocess',
   'C:\\Users\\ebarrero\\AppData\\Local\\Programs\\Python\\Python39\\lib\\_bootsubprocess.py',
   'PYMODULE'),
  ('_compat_pickle',
   'C:\\Users\\ebarrero\\AppData\\Local\\Programs\\Python\\Python39\\lib\\_compat_pickle.py',
   'PYMODULE'),
  ('_compression',
   'C:\\Users\\ebarrero\\AppData\\Local\\Programs\\Python\\Python39\\lib\\_compression.py',
   'PYMODULE'),
  ('_py_abc',
   'C:\\Users\\ebarrero\\AppData\\Local\\Programs\\Python\\Python39\\lib\\_py_abc.py',
   'PYMODULE'),
  ('_pydecimal',
   'C:\\Users\\ebarrero\\AppData\\Local\\Programs\\Python\\Python39\\lib\\_pydecimal.py',
   'PYMODULE'),
  ('_strptime',
   'C:\\Users\\ebarrero\\AppData\\Local\\Programs\\Python\\Python39\\lib\\_strptime.py',
   'PYMODULE'),
  ('_threading_local',
   'C:\\Users\\ebarrero\\AppData\\Local\\Programs\\Python\\Python39\\lib\\_threading_local.py',
   'PYMODULE'),
  ('argparse',
   'C:\\Users\\ebarrero\\AppData\\Local\\Programs\\Python\\Python39\\lib\\argparse.py',
   'PYMODULE'),
  ('ast',
   'C:\\Users\\ebarrero\\AppData\\Local\\Programs\\Python\\Python39\\lib\\ast.py',
   'PYMODULE'),
  ('base64',
   'C:\\Users\\ebarrero\\AppData\\Local\\Programs\\Python\\Python39\\lib\\base64.py',
   'PYMODULE'),
  ('bdb',
   'C:\\Users\\ebarrero\\AppData\\Local\\Programs\\Python\\Python39\\lib\\bdb.py',
   'PYMODULE'),
  ('bisect',
   'C:\\Users\\ebarrero\\AppData\\Local\\Programs\\Python\\Python39\\lib\\bisect.py',
   'PYMODULE'),
  ('bz2',
   'C:\\Users\\ebarrero\\AppData\\Local\\Programs\\Python\\Python39\\lib\\bz2.py',
   'PYMODULE'),
  ('calendar',
   'C:\\Users\\ebarrero\\AppData\\Local\\Programs\\Python\\Python39\\lib\\calendar.py',
   'PYMODULE'),
  ('cmd',
   'C:\\Users\\ebarrero\\AppData\\Local\\Programs\\Python\\Python39\\lib\\cmd.py',
   'PYMODULE'),
  ('code',
   'C:\\Users\\ebarrero\\AppData\\Local\\Programs\\Python\\Python39\\lib\\code.py',
   'PYMODULE'),
  ('codeop',
   'C:\\Users\\ebarrero\\AppData\\Local\\Programs\\Python\\Python39\\lib\\codeop.py',
   'PYMODULE'),
  ('configparser',
   'C:\\Users\\ebarrero\\AppData\\Local\\Programs\\Python\\Python39\\lib\\configparser.py',
   'PYMODULE'),
  ('contextlib',
   'C:\\Users\\ebarrero\\AppData\\Local\\Programs\\Python\\Python39\\lib\\contextlib.py',
   'PYMODULE'),
  ('contextvars',
   'C:\\Users\\ebarrero\\AppData\\Local\\Programs\\Python\\Python39\\lib\\contextvars.py',
   'PYMODULE'),
  ('copy',
   'C:\\Users\\ebarrero\\AppData\\Local\\Programs\\Python\\Python39\\lib\\copy.py',
   'PYMODULE'),
  ('csv',
   'C:\\Users\\ebarrero\\AppData\\Local\\Programs\\Python\\Python39\\lib\\csv.py',
   'PYMODULE'),
  ('ctypes',
   'C:\\Users\\ebarrero\\AppData\\Local\\Programs\\Python\\Python39\\lib\\ctypes\\__init__.py',
   'PYMODULE'),
  ('ctypes._endian',
   'C:\\Users\\ebarrero\\AppData\\Local\\Programs\\Python\\Python39\\lib\\ctypes\\_endian.py',
   'PYMODULE'),
  ('dataclasses',
   'C:\\Users\\ebarrero\\AppData\\Local\\Programs\\Python\\Python39\\lib\\dataclasses.py',
   'PYMODULE'),
  ('datetime',
   'C:\\Users\\ebarrero\\AppData\\Local\\Programs\\Python\\Python39\\lib\\datetime.py',
   'PYMODULE'),
  ('decimal',
   'C:\\Users\\ebarrero\\AppData\\Local\\Programs\\Python\\Python39\\lib\\decimal.py',
   'PYMODULE'),
  ('dis',
   'C:\\Users\\ebarrero\\AppData\\Local\\Programs\\Python\\Python39\\lib\\dis.py',
   'PYMODULE'),
  ('email',
   'C:\\Users\\ebarrero\\AppData\\Local\\Programs\\Python\\Python39\\lib\\email\\__init__.py',
   'PYMODULE'),
  ('email._encoded_words',
   'C:\\Users\\ebarrero\\AppData\\Local\\Programs\\Python\\Python39\\lib\\email\\_encoded_words.py',
   'PYMODULE'),
  ('email._header_value_parser',
   'C:\\Users\\ebarrero\\AppData\\Local\\Programs\\Python\\Python39\\lib\\email\\_header_value_parser.py',
   'PYMODULE'),
  ('email._parseaddr',
   'C:\\Users\\ebarrero\\AppData\\Local\\Programs\\Python\\Python39\\lib\\email\\_parseaddr.py',
   'PYMODULE'),
  ('email._policybase',
   'C:\\Users\\ebarrero\\AppData\\Local\\Programs\\Python\\Python39\\lib\\email\\_policybase.py',
   'PYMODULE'),
  ('email.base64mime',
   'C:\\Users\\ebarrero\\AppData\\Local\\Programs\\Python\\Python39\\lib\\email\\base64mime.py',
   'PYMODULE'),
  ('email.charset',
   'C:\\Users\\ebarrero\\AppData\\Local\\Programs\\Python\\Python39\\lib\\email\\charset.py',
   'PYMODULE'),
  ('email.contentmanager',
   'C:\\Users\\ebarrero\\AppData\\Local\\Programs\\Python\\Python39\\lib\\email\\contentmanager.py',
   'PYMODULE'),
  ('email.encoders',
   'C:\\Users\\ebarrero\\AppData\\Local\\Programs\\Python\\Python39\\lib\\email\\encoders.py',
   'PYMODULE'),
  ('email.errors',
   'C:\\Users\\ebarrero\\AppData\\Local\\Programs\\Python\\Python39\\lib\\email\\errors.py',
   'PYMODULE'),
  ('email.feedparser',
   'C:\\Users\\ebarrero\\AppData\\Local\\Programs\\Python\\Python39\\lib\\email\\feedparser.py',
   'PYMODULE'),
  ('email.generator',
   'C:\\Users\\ebarrero\\AppData\\Local\\Programs\\Python\\Python39\\lib\\email\\generator.py',
   'PYMODULE'),
  ('email.header',
   'C:\\Users\\ebarrero\\AppData\\Local\\Programs\\Python\\Python39\\lib\\email\\header.py',
   'PYMODULE'),
  ('email.headerregistry',
   'C:\\Users\\ebarrero\\AppData\\Local\\Programs\\Python\\Python39\\lib\\email\\headerregistry.py',
   'PYMODULE'),
  ('email.iterators',
   'C:\\Users\\ebarrero\\AppData\\Local\\Programs\\Python\\Python39\\lib\\email\\iterators.py',
   'PYMODULE'),
  ('email.message',
   'C:\\Users\\ebarrero\\AppData\\Local\\Programs\\Python\\Python39\\lib\\email\\message.py',
   'PYMODULE'),
  ('email.parser',
   'C:\\Users\\ebarrero\\AppData\\Local\\Programs\\Python\\Python39\\lib\\email\\parser.py',
   'PYMODULE'),
  ('email.policy',
   'C:\\Users\\ebarrero\\AppData\\Local\\Programs\\Python\\Python39\\lib\\email\\policy.py',
   'PYMODULE'),
  ('email.quoprimime',
   'C:\\Users\\ebarrero\\AppData\\Local\\Programs\\Python\\Python39\\lib\\email\\quoprimime.py',
   'PYMODULE'),
  ('email.utils',
   'C:\\Users\\ebarrero\\AppData\\Local\\Programs\\Python\\Python39\\lib\\email\\utils.py',
   'PYMODULE'),
  ('fnmatch',
   'C:\\Users\\ebarrero\\AppData\\Local\\Programs\\Python\\Python39\\lib\\fnmatch.py',
   'PYMODULE'),
  ('fractions',
   'C:\\Users\\ebarrero\\AppData\\Local\\Programs\\Python\\Python39\\lib\\fractions.py',
   'PYMODULE'),
  ('ftplib',
   'C:\\Users\\ebarrero\\AppData\\Local\\Programs\\Python\\Python39\\lib\\ftplib.py',
   'PYMODULE'),
  ('getopt',
   'C:\\Users\\ebarrero\\AppData\\Local\\Programs\\Python\\Python39\\lib\\getopt.py',
   'PYMODULE'),
  ('getpass',
   'C:\\Users\\ebarrero\\AppData\\Local\\Programs\\Python\\Python39\\lib\\getpass.py',
   'PYMODULE'),
  ('gettext',
   'C:\\Users\\ebarrero\\AppData\\Local\\Programs\\Python\\Python39\\lib\\gettext.py',
   'PYMODULE'),
  ('glob',
   'C:\\Users\\ebarrero\\AppData\\Local\\Programs\\Python\\Python39\\lib\\glob.py',
   'PYMODULE'),
  ('gzip',
   'C:\\Users\\ebarrero\\AppData\\Local\\Programs\\Python\\Python39\\lib\\gzip.py',
   'PYMODULE'),
  ('hashlib',
   'C:\\Users\\ebarrero\\AppData\\Local\\Programs\\Python\\Python39\\lib\\hashlib.py',
   'PYMODULE'),
  ('html',
   'C:\\Users\\ebarrero\\AppData\\Local\\Programs\\Python\\Python39\\lib\\html\\__init__.py',
   'PYMODULE'),
  ('html.entities',
   'C:\\Users\\ebarrero\\AppData\\Local\\Programs\\Python\\Python39\\lib\\html\\entities.py',
   'PYMODULE'),
  ('http',
   'C:\\Users\\ebarrero\\AppData\\Local\\Programs\\Python\\Python39\\lib\\http\\__init__.py',
   'PYMODULE'),
  ('http.client',
   'C:\\Users\\ebarrero\\AppData\\Local\\Programs\\Python\\Python39\\lib\\http\\client.py',
   'PYMODULE'),
  ('http.cookiejar',
   'C:\\Users\\ebarrero\\AppData\\Local\\Programs\\Python\\Python39\\lib\\http\\cookiejar.py',
   'PYMODULE'),
  ('http.server',
   'C:\\Users\\ebarrero\\AppData\\Local\\Programs\\Python\\Python39\\lib\\http\\server.py',
   'PYMODULE'),
  ('imp',
   'C:\\Users\\ebarrero\\AppData\\Local\\Programs\\Python\\Python39\\lib\\imp.py',
   'PYMODULE'),
  ('importlib',
   'C:\\Users\\ebarrero\\AppData\\Local\\Programs\\Python\\Python39\\lib\\importlib\\__init__.py',
   'PYMODULE'),
  ('importlib._bootstrap',
   'C:\\Users\\ebarrero\\AppData\\Local\\Programs\\Python\\Python39\\lib\\importlib\\_bootstrap.py',
   'PYMODULE'),
  ('importlib._bootstrap_external',
   'C:\\Users\\ebarrero\\AppData\\Local\\Programs\\Python\\Python39\\lib\\importlib\\_bootstrap_external.py',
   'PYMODULE'),
  ('importlib._common',
   'C:\\Users\\ebarrero\\AppData\\Local\\Programs\\Python\\Python39\\lib\\importlib\\_common.py',
   'PYMODULE'),
  ('importlib.abc',
   'C:\\Users\\ebarrero\\AppData\\Local\\Programs\\Python\\Python39\\lib\\importlib\\abc.py',
   'PYMODULE'),
  ('importlib.machinery',
   'C:\\Users\\ebarrero\\AppData\\Local\\Programs\\Python\\Python39\\lib\\importlib\\machinery.py',
   'PYMODULE'),
  ('importlib.metadata',
   'C:\\Users\\ebarrero\\AppData\\Local\\Programs\\Python\\Python39\\lib\\importlib\\metadata.py',
   'PYMODULE'),
  ('importlib.resources',
   'C:\\Users\\ebarrero\\AppData\\Local\\Programs\\Python\\Python39\\lib\\importlib\\resources.py',
   'PYMODULE'),
  ('importlib.util',
   'C:\\Users\\ebarrero\\AppData\\Local\\Programs\\Python\\Python39\\lib\\importlib\\util.py',
   'PYMODULE'),
  ('inspect',
   'C:\\Users\\ebarrero\\AppData\\Local\\Programs\\Python\\Python39\\lib\\inspect.py',
   'PYMODULE'),
  ('logging',
   'C:\\Users\\ebarrero\\AppData\\Local\\Programs\\Python\\Python39\\lib\\logging\\__init__.py',
   'PYMODULE'),
  ('lzma',
   'C:\\Users\\ebarrero\\AppData\\Local\\Programs\\Python\\Python39\\lib\\lzma.py',
   'PYMODULE'),
  ('mimetypes',
   'C:\\Users\\ebarrero\\AppData\\Local\\Programs\\Python\\Python39\\lib\\mimetypes.py',
   'PYMODULE'),
  ('netrc',
   'C:\\Users\\ebarrero\\AppData\\Local\\Programs\\Python\\Python39\\lib\\netrc.py',
   'PYMODULE'),
  ('nturl2path',
   'C:\\Users\\ebarrero\\AppData\\Local\\Programs\\Python\\Python39\\lib\\nturl2path.py',
   'PYMODULE'),
  ('numbers',
   'C:\\Users\\ebarrero\\AppData\\Local\\Programs\\Python\\Python39\\lib\\numbers.py',
   'PYMODULE'),
  ('opcode',
   'C:\\Users\\ebarrero\\AppData\\Local\\Programs\\Python\\Python39\\lib\\opcode.py',
   'PYMODULE'),
  ('optparse',
   'C:\\Users\\ebarrero\\AppData\\Local\\Programs\\Python\\Python39\\lib\\optparse.py',
   'PYMODULE'),
  ('packaging',
   'C:\\Users\\ebarrero\\Python\\lib\\site-packages\\packaging\\__init__.py',
   'PYMODULE'),
  ('packaging._elffile',
   'C:\\Users\\ebarrero\\Python\\lib\\site-packages\\packaging\\_elffile.py',
   'PYMODULE'),
  ('packaging._manylinux',
   'C:\\Users\\ebarrero\\Python\\lib\\site-packages\\packaging\\_manylinux.py',
   'PYMODULE'),
  ('packaging._musllinux',
   'C:\\Users\\ebarrero\\Python\\lib\\site-packages\\packaging\\_musllinux.py',
   'PYMODULE'),
  ('packaging._parser',
   'C:\\Users\\ebarrero\\Python\\lib\\site-packages\\packaging\\_parser.py',
   'PYMODULE'),
  ('packaging._structures',
   'C:\\Users\\ebarrero\\Python\\lib\\site-packages\\packaging\\_structures.py',
   'PYMODULE'),
  ('packaging._tokenizer',
   'C:\\Users\\ebarrero\\Python\\lib\\site-packages\\packaging\\_tokenizer.py',
   'PYMODULE'),
  ('packaging.markers',
   'C:\\Users\\ebarrero\\Python\\lib\\site-packages\\packaging\\markers.py',
   'PYMODULE'),
  ('packaging.metadata',
   'C:\\Users\\ebarrero\\Python\\lib\\site-packages\\packaging\\metadata.py',
   'PYMODULE'),
  ('packaging.requirements',
   'C:\\Users\\ebarrero\\Python\\lib\\site-packages\\packaging\\requirements.py',
   'PYMODULE'),
  ('packaging.specifiers',
   'C:\\Users\\ebarrero\\Python\\lib\\site-packages\\packaging\\specifiers.py',
   'PYMODULE'),
  ('packaging.tags',
   'C:\\Users\\ebarrero\\Python\\lib\\site-packages\\packaging\\tags.py',
   'PYMODULE'),
  ('packaging.utils',
   'C:\\Users\\ebarrero\\Python\\lib\\site-packages\\packaging\\utils.py',
   'PYMODULE'),
  ('packaging.version',
   'C:\\Users\\ebarrero\\Python\\lib\\site-packages\\packaging\\version.py',
   'PYMODULE'),
  ('pathlib',
   'C:\\Users\\ebarrero\\AppData\\Local\\Programs\\Python\\Python39\\lib\\pathlib.py',
   'PYMODULE'),
  ('pdb',
   'C:\\Users\\ebarrero\\AppData\\Local\\Programs\\Python\\Python39\\lib\\pdb.py',
   'PYMODULE'),
  ('pickle',
   'C:\\Users\\ebarrero\\AppData\\Local\\Programs\\Python\\Python39\\lib\\pickle.py',
   'PYMODULE'),
  ('pkg_resources',
   'C:\\Users\\ebarrero\\Python\\lib\\site-packages\\pkg_resources\\__init__.py',
   'PYMODULE'),
  ('pkg_resources._vendor',
   'C:\\Users\\ebarrero\\Python\\lib\\site-packages\\pkg_resources\\_vendor\\__init__.py',
   'PYMODULE'),
  ('pkg_resources._vendor.appdirs',
   'C:\\Users\\ebarrero\\Python\\lib\\site-packages\\pkg_resources\\_vendor\\appdirs.py',
   'PYMODULE'),
  ('pkg_resources._vendor.importlib_resources',
   'C:\\Users\\ebarrero\\Python\\lib\\site-packages\\pkg_resources\\_vendor\\importlib_resources\\__init__.py',
   'PYMODULE'),
  ('pkg_resources._vendor.importlib_resources._adapters',
   'C:\\Users\\ebarrero\\Python\\lib\\site-packages\\pkg_resources\\_vendor\\importlib_resources\\_adapters.py',
   'PYMODULE'),
  ('pkg_resources._vendor.importlib_resources._common',
   'C:\\Users\\ebarrero\\Python\\lib\\site-packages\\pkg_resources\\_vendor\\importlib_resources\\_common.py',
   'PYMODULE'),
  ('pkg_resources._vendor.importlib_resources._compat',
   'C:\\Users\\ebarrero\\Python\\lib\\site-packages\\pkg_resources\\_vendor\\importlib_resources\\_compat.py',
   'PYMODULE'),
  ('pkg_resources._vendor.importlib_resources._itertools',
   'C:\\Users\\ebarrero\\Python\\lib\\site-packages\\pkg_resources\\_vendor\\importlib_resources\\_itertools.py',
   'PYMODULE'),
  ('pkg_resources._vendor.importlib_resources._legacy',
   'C:\\Users\\ebarrero\\Python\\lib\\site-packages\\pkg_resources\\_vendor\\importlib_resources\\_legacy.py',
   'PYMODULE'),
  ('pkg_resources._vendor.importlib_resources.abc',
   'C:\\Users\\ebarrero\\Python\\lib\\site-packages\\pkg_resources\\_vendor\\importlib_resources\\abc.py',
   'PYMODULE'),
  ('pkg_resources._vendor.importlib_resources.readers',
   'C:\\Users\\ebarrero\\Python\\lib\\site-packages\\pkg_resources\\_vendor\\importlib_resources\\readers.py',
   'PYMODULE'),
  ('pkg_resources._vendor.importlib_resources.simple',
   'C:\\Users\\ebarrero\\Python\\lib\\site-packages\\pkg_resources\\_vendor\\importlib_resources\\simple.py',
   'PYMODULE'),
  ('pkg_resources._vendor.jaraco',
   'C:\\Users\\ebarrero\\Python\\lib\\site-packages\\pkg_resources\\_vendor\\jaraco\\__init__.py',
   'PYMODULE'),
  ('pkg_resources._vendor.jaraco.context',
   'C:\\Users\\ebarrero\\Python\\lib\\site-packages\\pkg_resources\\_vendor\\jaraco\\context.py',
   'PYMODULE'),
  ('pkg_resources._vendor.jaraco.functools',
   'C:\\Users\\ebarrero\\Python\\lib\\site-packages\\pkg_resources\\_vendor\\jaraco\\functools.py',
   'PYMODULE'),
  ('pkg_resources._vendor.jaraco.text',
   'C:\\Users\\ebarrero\\Python\\lib\\site-packages\\pkg_resources\\_vendor\\jaraco\\text\\__init__.py',
   'PYMODULE'),
  ('pkg_resources._vendor.more_itertools',
   'C:\\Users\\ebarrero\\Python\\lib\\site-packages\\pkg_resources\\_vendor\\more_itertools\\__init__.py',
   'PYMODULE'),
  ('pkg_resources._vendor.more_itertools.more',
   'C:\\Users\\ebarrero\\Python\\lib\\site-packages\\pkg_resources\\_vendor\\more_itertools\\more.py',
   'PYMODULE'),
  ('pkg_resources._vendor.more_itertools.recipes',
   'C:\\Users\\ebarrero\\Python\\lib\\site-packages\\pkg_resources\\_vendor\\more_itertools\\recipes.py',
   'PYMODULE'),
  ('pkg_resources._vendor.packaging',
   'C:\\Users\\ebarrero\\Python\\lib\\site-packages\\pkg_resources\\_vendor\\packaging\\__init__.py',
   'PYMODULE'),
  ('pkg_resources._vendor.packaging.__about__',
   'C:\\Users\\ebarrero\\Python\\lib\\site-packages\\pkg_resources\\_vendor\\packaging\\__about__.py',
   'PYMODULE'),
  ('pkg_resources._vendor.packaging._manylinux',
   'C:\\Users\\ebarrero\\Python\\lib\\site-packages\\pkg_resources\\_vendor\\packaging\\_manylinux.py',
   'PYMODULE'),
  ('pkg_resources._vendor.packaging._musllinux',
   'C:\\Users\\ebarrero\\Python\\lib\\site-packages\\pkg_resources\\_vendor\\packaging\\_musllinux.py',
   'PYMODULE'),
  ('pkg_resources._vendor.packaging._structures',
   'C:\\Users\\ebarrero\\Python\\lib\\site-packages\\pkg_resources\\_vendor\\packaging\\_structures.py',
   'PYMODULE'),
  ('pkg_resources._vendor.packaging.markers',
   'C:\\Users\\ebarrero\\Python\\lib\\site-packages\\pkg_resources\\_vendor\\packaging\\markers.py',
   'PYMODULE'),
  ('pkg_resources._vendor.packaging.requirements',
   'C:\\Users\\ebarrero\\Python\\lib\\site-packages\\pkg_resources\\_vendor\\packaging\\requirements.py',
   'PYMODULE'),
  ('pkg_resources._vendor.packaging.specifiers',
   'C:\\Users\\ebarrero\\Python\\lib\\site-packages\\pkg_resources\\_vendor\\packaging\\specifiers.py',
   'PYMODULE'),
  ('pkg_resources._vendor.packaging.tags',
   'C:\\Users\\ebarrero\\Python\\lib\\site-packages\\pkg_resources\\_vendor\\packaging\\tags.py',
   'PYMODULE'),
  ('pkg_resources._vendor.packaging.utils',
   'C:\\Users\\ebarrero\\Python\\lib\\site-packages\\pkg_resources\\_vendor\\packaging\\utils.py',
   'PYMODULE'),
  ('pkg_resources._vendor.packaging.version',
   'C:\\Users\\ebarrero\\Python\\lib\\site-packages\\pkg_resources\\_vendor\\packaging\\version.py',
   'PYMODULE'),
  ('pkg_resources._vendor.pyparsing',
   'C:\\Users\\ebarrero\\Python\\lib\\site-packages\\pkg_resources\\_vendor\\pyparsing\\__init__.py',
   'PYMODULE'),
  ('pkg_resources._vendor.pyparsing.actions',
   'C:\\Users\\ebarrero\\Python\\lib\\site-packages\\pkg_resources\\_vendor\\pyparsing\\actions.py',
   'PYMODULE'),
  ('pkg_resources._vendor.pyparsing.common',
   'C:\\Users\\ebarrero\\Python\\lib\\site-packages\\pkg_resources\\_vendor\\pyparsing\\common.py',
   'PYMODULE'),
  ('pkg_resources._vendor.pyparsing.core',
   'C:\\Users\\ebarrero\\Python\\lib\\site-packages\\pkg_resources\\_vendor\\pyparsing\\core.py',
   'PYMODULE'),
  ('pkg_resources._vendor.pyparsing.diagram',
   'C:\\Users\\ebarrero\\Python\\lib\\site-packages\\pkg_resources\\_vendor\\pyparsing\\diagram\\__init__.py',
   'PYMODULE'),
  ('pkg_resources._vendor.pyparsing.exceptions',
   'C:\\Users\\ebarrero\\Python\\lib\\site-packages\\pkg_resources\\_vendor\\pyparsing\\exceptions.py',
   'PYMODULE'),
  ('pkg_resources._vendor.pyparsing.helpers',
   'C:\\Users\\ebarrero\\Python\\lib\\site-packages\\pkg_resources\\_vendor\\pyparsing\\helpers.py',
   'PYMODULE'),
  ('pkg_resources._vendor.pyparsing.results',
   'C:\\Users\\ebarrero\\Python\\lib\\site-packages\\pkg_resources\\_vendor\\pyparsing\\results.py',
   'PYMODULE'),
  ('pkg_resources._vendor.pyparsing.testing',
   'C:\\Users\\ebarrero\\Python\\lib\\site-packages\\pkg_resources\\_vendor\\pyparsing\\testing.py',
   'PYMODULE'),
  ('pkg_resources._vendor.pyparsing.unicode',
   'C:\\Users\\ebarrero\\Python\\lib\\site-packages\\pkg_resources\\_vendor\\pyparsing\\unicode.py',
   'PYMODULE'),
  ('pkg_resources._vendor.pyparsing.util',
   'C:\\Users\\ebarrero\\Python\\lib\\site-packages\\pkg_resources\\_vendor\\pyparsing\\util.py',
   'PYMODULE'),
  ('pkg_resources._vendor.zipp',
   'C:\\Users\\ebarrero\\Python\\lib\\site-packages\\pkg_resources\\_vendor\\zipp.py',
   'PYMODULE'),
  ('pkg_resources.extern',
   'C:\\Users\\ebarrero\\Python\\lib\\site-packages\\pkg_resources\\extern\\__init__.py',
   'PYMODULE'),
  ('pkgutil',
   'C:\\Users\\ebarrero\\AppData\\Local\\Programs\\Python\\Python39\\lib\\pkgutil.py',
   'PYMODULE'),
  ('platform',
   'C:\\Users\\ebarrero\\AppData\\Local\\Programs\\Python\\Python39\\lib\\platform.py',
   'PYMODULE'),
  ('plistlib',
   'C:\\Users\\ebarrero\\AppData\\Local\\Programs\\Python\\Python39\\lib\\plistlib.py',
   'PYMODULE'),
  ('pprint',
   'C:\\Users\\ebarrero\\AppData\\Local\\Programs\\Python\\Python39\\lib\\pprint.py',
   'PYMODULE'),
  ('py_compile',
   'C:\\Users\\ebarrero\\AppData\\Local\\Programs\\Python\\Python39\\lib\\py_compile.py',
   'PYMODULE'),
  ('pydoc',
   'C:\\Users\\ebarrero\\AppData\\Local\\Programs\\Python\\Python39\\lib\\pydoc.py',
   'PYMODULE'),
  ('pydoc_data',
   'C:\\Users\\ebarrero\\AppData\\Local\\Programs\\Python\\Python39\\lib\\pydoc_data\\__init__.py',
   'PYMODULE'),
  ('pydoc_data.topics',
   'C:\\Users\\ebarrero\\AppData\\Local\\Programs\\Python\\Python39\\lib\\pydoc_data\\topics.py',
   'PYMODULE'),
  ('pygame',
   'C:\\Users\\ebarrero\\Python\\lib\\site-packages\\pygame\\__init__.py',
   'PYMODULE'),
  ('pygame.colordict',
   'C:\\Users\\ebarrero\\Python\\lib\\site-packages\\pygame\\colordict.py',
   'PYMODULE'),
  ('pygame.cursors',
   'C:\\Users\\ebarrero\\Python\\lib\\site-packages\\pygame\\cursors.py',
   'PYMODULE'),
  ('pygame.fastevent',
   'C:\\Users\\ebarrero\\Python\\lib\\site-packages\\pygame\\fastevent.py',
   'PYMODULE'),
  ('pygame.ftfont',
   'C:\\Users\\ebarrero\\Python\\lib\\site-packages\\pygame\\ftfont.py',
   'PYMODULE'),
  ('pygame.macosx',
   'C:\\Users\\ebarrero\\Python\\lib\\site-packages\\pygame\\macosx.py',
   'PYMODULE'),
  ('pygame.pkgdata',
   'C:\\Users\\ebarrero\\Python\\lib\\site-packages\\pygame\\pkgdata.py',
   'PYMODULE'),
  ('pygame.sndarray',
   'C:\\Users\\ebarrero\\Python\\lib\\site-packages\\pygame\\sndarray.py',
   'PYMODULE'),
  ('pygame.sprite',
   'C:\\Users\\ebarrero\\Python\\lib\\site-packages\\pygame\\sprite.py',
   'PYMODULE'),
  ('pygame.surfarray',
   'C:\\Users\\ebarrero\\Python\\lib\\site-packages\\pygame\\surfarray.py',
   'PYMODULE'),
  ('pygame.sysfont',
   'C:\\Users\\ebarrero\\Python\\lib\\site-packages\\pygame\\sysfont.py',
   'PYMODULE'),
  ('pygame.threads',
   'C:\\Users\\ebarrero\\Python\\lib\\site-packages\\pygame\\threads\\__init__.py',
   'PYMODULE'),
  ('pygame.version',
   'C:\\Users\\ebarrero\\Python\\lib\\site-packages\\pygame\\version.py',
   'PYMODULE'),
  ('queue',
   'C:\\Users\\ebarrero\\AppData\\Local\\Programs\\Python\\Python39\\lib\\queue.py',
   'PYMODULE'),
  ('quopri',
   'C:\\Users\\ebarrero\\AppData\\Local\\Programs\\Python\\Python39\\lib\\quopri.py',
   'PYMODULE'),
  ('random',
   'C:\\Users\\ebarrero\\AppData\\Local\\Programs\\Python\\Python39\\lib\\random.py',
   'PYMODULE'),
  ('runpy',
   'C:\\Users\\ebarrero\\AppData\\Local\\Programs\\Python\\Python39\\lib\\runpy.py',
   'PYMODULE'),
  ('selectors',
   'C:\\Users\\ebarrero\\AppData\\Local\\Programs\\Python\\Python39\\lib\\selectors.py',
   'PYMODULE'),
  ('shlex',
   'C:\\Users\\ebarrero\\AppData\\Local\\Programs\\Python\\Python39\\lib\\shlex.py',
   'PYMODULE'),
  ('shutil',
   'C:\\Users\\ebarrero\\AppData\\Local\\Programs\\Python\\Python39\\lib\\shutil.py',
   'PYMODULE'),
  ('signal',
   'C:\\Users\\ebarrero\\AppData\\Local\\Programs\\Python\\Python39\\lib\\signal.py',
   'PYMODULE'),
  ('socket',
   'C:\\Users\\ebarrero\\AppData\\Local\\Programs\\Python\\Python39\\lib\\socket.py',
   'PYMODULE'),
  ('socketserver',
   'C:\\Users\\ebarrero\\AppData\\Local\\Programs\\Python\\Python39\\lib\\socketserver.py',
   'PYMODULE'),
  ('ssl',
   'C:\\Users\\ebarrero\\AppData\\Local\\Programs\\Python\\Python39\\lib\\ssl.py',
   'PYMODULE'),
  ('statistics',
   'C:\\Users\\ebarrero\\AppData\\Local\\Programs\\Python\\Python39\\lib\\statistics.py',
   'PYMODULE'),
  ('string',
   'C:\\Users\\ebarrero\\AppData\\Local\\Programs\\Python\\Python39\\lib\\string.py',
   'PYMODULE'),
  ('stringprep',
   'C:\\Users\\ebarrero\\AppData\\Local\\Programs\\Python\\Python39\\lib\\stringprep.py',
   'PYMODULE'),
  ('subprocess',
   'C:\\Users\\ebarrero\\AppData\\Local\\Programs\\Python\\Python39\\lib\\subprocess.py',
   'PYMODULE'),
  ('sysconfig',
   'C:\\Users\\ebarrero\\AppData\\Local\\Programs\\Python\\Python39\\lib\\sysconfig.py',
   'PYMODULE'),
  ('tarfile',
   'C:\\Users\\ebarrero\\AppData\\Local\\Programs\\Python\\Python39\\lib\\tarfile.py',
   'PYMODULE'),
  ('tempfile',
   'C:\\Users\\ebarrero\\AppData\\Local\\Programs\\Python\\Python39\\lib\\tempfile.py',
   'PYMODULE'),
  ('textwrap',
   'C:\\Users\\ebarrero\\AppData\\Local\\Programs\\Python\\Python39\\lib\\textwrap.py',
   'PYMODULE'),
  ('threading',
   'C:\\Users\\ebarrero\\AppData\\Local\\Programs\\Python\\Python39\\lib\\threading.py',
   'PYMODULE'),
  ('token',
   'C:\\Users\\ebarrero\\AppData\\Local\\Programs\\Python\\Python39\\lib\\token.py',
   'PYMODULE'),
  ('tokenize',
   'C:\\Users\\ebarrero\\AppData\\Local\\Programs\\Python\\Python39\\lib\\tokenize.py',
   'PYMODULE'),
  ('tracemalloc',
   'C:\\Users\\ebarrero\\AppData\\Local\\Programs\\Python\\Python39\\lib\\tracemalloc.py',
   'PYMODULE'),
  ('tty',
   'C:\\Users\\ebarrero\\AppData\\Local\\Programs\\Python\\Python39\\lib\\tty.py',
   'PYMODULE'),
  ('typing',
   'C:\\Users\\ebarrero\\AppData\\Local\\Programs\\Python\\Python39\\lib\\typing.py',
   'PYMODULE'),
  ('typing_extensions',
   'C:\\Users\\ebarrero\\Python\\lib\\site-packages\\typing_extensions.py',
   'PYMODULE'),
  ('urllib',
   'C:\\Users\\ebarrero\\AppData\\Local\\Programs\\Python\\Python39\\lib\\urllib\\__init__.py',
   'PYMODULE'),
  ('urllib.error',
   'C:\\Users\\ebarrero\\AppData\\Local\\Programs\\Python\\Python39\\lib\\urllib\\error.py',
   'PYMODULE'),
  ('urllib.parse',
   'C:\\Users\\ebarrero\\AppData\\Local\\Programs\\Python\\Python39\\lib\\urllib\\parse.py',
   'PYMODULE'),
  ('urllib.request',
   'C:\\Users\\ebarrero\\AppData\\Local\\Programs\\Python\\Python39\\lib\\urllib\\request.py',
   'PYMODULE'),
  ('urllib.response',
   'C:\\Users\\ebarrero\\AppData\\Local\\Programs\\Python\\Python39\\lib\\urllib\\response.py',
   'PYMODULE'),
  ('uu',
   'C:\\Users\\ebarrero\\AppData\\Local\\Programs\\Python\\Python39\\lib\\uu.py',
   'PYMODULE'),
  ('webbrowser',
   'C:\\Users\\ebarrero\\AppData\\Local\\Programs\\Python\\Python39\\lib\\webbrowser.py',
   'PYMODULE'),
  ('xml',
   'C:\\Users\\ebarrero\\AppData\\Local\\Programs\\Python\\Python39\\lib\\xml\\__init__.py',
   'PYMODULE'),
  ('xml.parsers',
   'C:\\Users\\ebarrero\\AppData\\Local\\Programs\\Python\\Python39\\lib\\xml\\parsers\\__init__.py',
   'PYMODULE'),
  ('xml.parsers.expat',
   'C:\\Users\\ebarrero\\AppData\\Local\\Programs\\Python\\Python39\\lib\\xml\\parsers\\expat.py',
   'PYMODULE'),
  ('xml.sax',
   'C:\\Users\\ebarrero\\AppData\\Local\\Programs\\Python\\Python39\\lib\\xml\\sax\\__init__.py',
   'PYMODULE'),
  ('xml.sax._exceptions',
   'C:\\Users\\ebarrero\\AppData\\Local\\Programs\\Python\\Python39\\lib\\xml\\sax\\_exceptions.py',
   'PYMODULE'),
  ('xml.sax.expatreader',
   'C:\\Users\\ebarrero\\AppData\\Local\\Programs\\Python\\Python39\\lib\\xml\\sax\\expatreader.py',
   'PYMODULE'),
  ('xml.sax.handler',
   'C:\\Users\\ebarrero\\AppData\\Local\\Programs\\Python\\Python39\\lib\\xml\\sax\\handler.py',
   'PYMODULE'),
  ('xml.sax.saxutils',
   'C:\\Users\\ebarrero\\AppData\\Local\\Programs\\Python\\Python39\\lib\\xml\\sax\\saxutils.py',
   'PYMODULE'),
  ('xml.sax.xmlreader',
   'C:\\Users\\ebarrero\\AppData\\Local\\Programs\\Python\\Python39\\lib\\xml\\sax\\xmlreader.py',
   'PYMODULE'),
  ('zipfile',
   'C:\\Users\\ebarrero\\AppData\\Local\\Programs\\Python\\Python39\\lib\\zipfile.py',
   'PYMODULE'),
  ('zipimport',
   'C:\\Users\\ebarrero\\AppData\\Local\\Programs\\Python\\Python39\\lib\\zipimport.py',
   'PYMODULE')])
